Hierarchical Bayes Prediction
…
We can also identify the keys for each artist with higher than 90 percent chance of being a hit. Animal Collective has 4 keys with higher than a 90% chance of being a hit. Although these songs are lower average popularity than other artists, they are, for animal collective, the highest likely songs to be hits.

sum(finalindprops > 0.90)
#> [1] 128
artists.topHR<-clean_data[finalindprops > 0.90,1:3]
artists.topHR
#> # A tibble: 128 × 3
#> # Groups:   artist_name [19]
#>    artist_name       key_mode mean_pop
#>    <chr>             <chr>       <dbl>
#>  1 Animal Collective B minor     0.34 
#>  2 Animal Collective C# major    0.36 
#>  3 Animal Collective D minor     0.38 
#>  4 Animal Collective E major     0.35 
#>  5 Beyoncé           C# major    0.347
#>  6 Beyoncé           D major     0.431
#>  7 Beyoncé           D# major    0.47 
#>  8 Beyoncé           E major     0.37 
#>  9 Beyoncé           F minor     0.53 
#> 10 Beyoncé           G minor     0.425
#> # … with 118 more rows
…
